Pipeline.vcd
$date
	Sun Jun 29 12:37:16 2025
$end
$version
	Icarus Verilog
$end
$timescale
	1ps
$end
$scope module Pipeline_Top_tb $end
$var reg 1 ! clk $end
$var reg 1 " clk_cc $end
$var reg 1 # rst $end
$scope module Pipeline_Top $end
$var wire 1 ! clk $end
$var wire 1 " clk_cc $end
$var wire 1 # rst $end
$var wire 32 $ pc_plus4W [31:0] $end
$var wire 32 % pc_plus4M [31:0] $end
$var wire 32 & pc_plus4E [31:0] $end
$var wire 32 ' pc_plus4D [31:0] $end
$var wire 32 ( immExtE [31:0] $end
$var wire 1 ) cache_wait $end
$var wire 1 * branchE $end
$var wire 32 + WriteDataM [31:0] $end
$var wire 1 , StallF $end
$var wire 1 - StallE $end
$var wire 1 . StallD $end
$var wire 5 / Rs2E [4:0] $end
$var wire 5 0 Rs1E [4:0] $end
$var wire 32 1 ResultW [31:0] $end
$var wire 2 2 ResultSrcW [1:0] $end
$var wire 2 3 ResultSrcM [1:0] $end
$var wire 2 4 ResultSrcE [1:0] $end
$var wire 1 5 RegwriteW $end
$var wire 1 6 RegwriteM $end
$var wire 1 7 RegwriteE $end
$var wire 32 8 ReadDataW [31:0] $end
$var wire 5 9 RdW [4:0] $end
$var wire 5 : RdM [4:0] $end
$var wire 5 ; RdE [4:0] $end
$var wire 32 < RD2E [31:0] $end
$var wire 32 = RD1E [31:0] $end
$var wire 32 > PC_TargetE [31:0] $end
$var wire 1 ? PCSrcE $end
$var wire 32 @ PCE [31:0] $end
$var wire 32 A PCD [31:0] $end
$var wire 1 B MemwriteM $end
$var wire 1 C MemwriteE $end
$var wire 1 D JumpE $end
$var wire 32 E InstrD [31:0] $end
$var wire 2 F Forward_B_E [1:0] $end
$var wire 2 G Forward_A_E [1:0] $end
$var wire 1 H ALUSrcE $end
$var wire 32 I ALUResultW [31:0] $end
$var wire 32 J ALUResultM [31:0] $end
$var wire 4 K ALUControlE [3:0] $end
$scope module Decode_cycle $end
$var wire 1 ! clk $end
$var wire 1 # rst $end
$var wire 32 L pc_plus4E [31:0] $end
$var wire 32 M pc_plus4D [31:0] $end
$var wire 32 N immExtE [31:0] $end
$var wire 32 O immExtD [31:0] $end
$var wire 1 * branchE $end
$var wire 1 P branchD $end
$var wire 1 . StallD $end
$var wire 5 Q Rs2E [4:0] $end
$var wire 5 R Rs2D [4:0] $end
$var wire 5 S Rs1E [4:0] $end
$var wire 5 T Rs1D [4:0] $end
$var wire 32 U ResultW [31:0] $end
$var wire 2 V ResultSrcE [1:0] $end
$var wire 2 W ResultSrcD [1:0] $end
$var wire 1 5 RegwriteW $end
$var wire 1 7 RegwriteE $end
$var wire 1 X RegwriteD $end
$var wire 5 Y RdW [4:0] $end
$var wire 5 Z RdE [4:0] $end
$var wire 5 [ RdD [4:0] $end
$var wire 32 \ RD2E [31:0] $end
$var wire 32 ] RD2D [31:0] $end
$var wire 32 ^ RD1E [31:0] $end
$var wire 32 _ RD1D [31:0] $end
$var wire 32 ` PCE [31:0] $end
$var wire 32 a PCD [31:0] $end
$var wire 1 C MemwriteE $end
$var wire 1 b MemwriteD $end
$var wire 1 D JumpE $end
$var wire 1 c JumpD $end
$var wire 32 d InstrD [31:0] $end
$var wire 2 e ImmSrcD [1:0] $end
$var wire 1 H ALUSrcE $end
$var wire 1 f ALUSrcD $end
$var wire 4 g ALUControlE [3:0] $end
$var wire 4 h ALUControlD [3:0] $end
$var reg 3 i ALUControlD_E [2:0] $end
$var reg 1 j ALUSrcD_E $end
$var reg 1 k JumpD_E $end
$var reg 1 l MemwriteD_E $end
$var reg 32 m PCD_E [31:0] $end
$var reg 32 n RD1D_E [31:0] $end
$var reg 32 o RD2D_E [31:0] $end
$var reg 5 p RdD_E [4:0] $end
$var reg 1 q RegwriteD_E $end
$var reg 2 r ResultSrcD_E [1:0] $end
$var reg 5 s Rs1D_E [4:0] $end
$var reg 5 t Rs2D_E [4:0] $end
$var reg 1 u branchD_E $end
$var reg 32 v immExtD_E [31:0] $end
$var reg 32 w pc_plus4D_E [31:0] $end
$scope module Register_file $end
$var wire 5 x A1 [4:0] $end
$var wire 5 y A2 [4:0] $end
$var wire 1 ! clk $end
$var wire 1 # rst $end
$var wire 1 5 WE3 $end
$var wire 32 z WD3 [31:0] $end
$var wire 32 { RD2 [31:0] $end
$var wire 32 | RD1 [31:0] $end
$var wire 5 } A3 [4:0] $end
$var integer 32 ~ i [31:0] $end
$upscope $end
$scope module Sign_Extend $end
$var wire 32 !" in [31:0] $end
$var wire 32 "" imm_ext [31:0] $end
$var wire 2 #" ImmSrc [1:0] $end
$upscope $end
$scope module control_unit_top $end
$var wire 1 $" Zero $end
$var wire 3 %" funct3 [2:0] $end
$var wire 7 &" funct7 [6:0] $end
$var wire 7 '" op [6:0] $end
$var wire 1 (" op5 $end
$var wire 1 P branch $end
$var wire 2 )" ResultSrc [1:0] $end
$var wire 1 X RegWrite $end
$var wire 1 *" PCSrc $end
$var wire 1 b Memwrite $end
$var wire 1 c Jump $end
$var wire 2 +" ImmSrc [1:0] $end
$var wire 2 ," ALUop [1:0] $end
$var wire 1 f ALUSrc $end
$var wire 4 -" ALUControl [3:0] $end
$scope module alu_decoder $end
$var wire 3 ." funct3 [2:0] $end
$var wire 7 /" funct7 [6:0] $end
$var wire 1 (" op5 $end
$var wire 2 0" ALUop [1:0] $end
$var reg 4 1" ALUControl [3:0] $end
$upscope $end
$scope module main_decoder $end
$var wire 1 f ALUSrc $end
$var wire 1 c Jump $end
$var wire 1 *" PCSrc $end
$var wire 1 X RegWrite $end
$var wire 1 $" Zero $end
$var wire 7 2" op [6:0] $end
$var wire 1 P branch $end
$var wire 2 3" ResultSrc [1:0] $end
$var wire 1 b Memwrite $end
$var wire 2 4" ImmSrc [1:0] $end
$var wire 2 5" ALUop [1:0] $end
$upscope $end
$upscope $end
$upscope $end
$scope module Execute_cycle $end
$var wire 4 6" ALUControlE [3:0] $end
$var wire 1 H ALUSrcE $end
$var wire 1 D JumpE $end
$var wire 1 C MemwriteE $end
$var wire 32 7" PCE [31:0] $end
$var wire 1 ? PCSrcE $end
$var wire 32 8" RD1E [31:0] $end
$var wire 32 9" RD2E [31:0] $end
$var wire 5 :" RdE [4:0] $end
$var wire 1 7 RegwriteE $end
$var wire 2 ;" ResultSrcE [1:0] $end
$var wire 32 <" SrcAE [31:0] $end
$var wire 32 =" WriteDataE [31:0] $end
$var wire 1 >" ZeroE $end
$var wire 1 ?" Zero_BranchE $end
$var wire 1 * branchE $end
$var wire 1 ! clk $end
$var wire 32 @" immExtE [31:0] $end
$var wire 32 A" pc_plus4E [31:0] $end
$var wire 32 B" pc_plus4W [31:0] $end
$var wire 1 # rst $end
$var wire 32 C" pc_plus4M [31:0] $end
$var wire 32 D" WriteDataM [31:0] $end
$var wire 1 - StallE $end
$var wire 32 E" SrcBE [31:0] $end
$var wire 32 F" SrcA_Forwarded [31:0] $end
$var wire 32 G" ResultW [31:0] $end
$var wire 2 H" ResultSrcM [1:0] $end
$var wire 1 6 RegwriteM $end
$var wire 5 I" RdM [4:0] $end
$var wire 32 J" RD2E_Forwarded [31:0] $end
$var wire 32 K" PC_TargetE [31:0] $end
$var wire 1 B MemwriteM $end
$var wire 2 L" ForwardBE [1:0] $end
$var wire 2 M" ForwardAE [1:0] $end
$var wire 32 N" ALUResultW [31:0] $end
$var wire 32 O" ALUResultM [31:0] $end
$var wire 32 P" ALUResultE [31:0] $end
$var reg 32 Q" ALUResultE_M [31:0] $end
$var reg 1 R" MemwriteE_M $end
$var reg 5 S" RdE_M [4:0] $end
$var reg 1 T" RegwriteE_M $end
$var reg 2 U" ResultSrcE_M [1:0] $end
$var reg 32 V" WriteDataE_M [31:0] $end
$var reg 32 W" pc_plus4E_M [31:0] $end
$scope module ALUE $end
$var wire 32 X" A [31:0] $end
$var wire 4 Y" ALUControl [3:0] $end
$var wire 32 Z" signed_a [31:0] $end
$var wire 32 [" signed_b [31:0] $end
$var wire 1 \" Zero $end
$var wire 32 ]" B [31:0] $end
$var reg 32 ^" Result [31:0] $end
$upscope $end
$scope module muxaluE $end
$var wire 32 _" a [31:0] $end
$var wire 32 `" b [31:0] $end
$var wire 1 H sel $end
$var wire 32 a" c [31:0] $end
$upscope $end
$scope module target $end
$var wire 32 b" a [31:0] $end
$var wire 32 c" b [31:0] $end
$var wire 32 d" c [31:0] $end
$upscope $end
$upscope $end
$scope module Fetch_cycle $end
$var wire 1 ? PCSrcE $end
$var wire 32 e" PC_TargetE [31:0] $end
$var wire 1 ! clk $end
$var wire 1 # rst $end
$var wire 32 f" pc_plus4F [31:0] $end
$var wire 32 g" pc_plus4D [31:0] $end
$var wire 1 , StallF $end
$var wire 32 h" PC_F [31:0] $end
$var wire 32 i" PCF [31:0] $end
$var wire 32 j" PCD [31:0] $end
$var wire 32 k" InstrF [31:0] $end
$var wire 32 l" InstrD [31:0] $end
$var reg 32 m" InstrF_D [31:0] $end
$var reg 32 n" PCF_D [31:0] $end
$var reg 32 o" pc_plus4F_D [31:0] $end
$scope module INSTR_MEM $end
$var wire 1 # rst $end
$var wire 32 p" Instr [31:0] $end
$var wire 32 q" A [31:0] $end
$upscope $end
$scope module PC_Mux $end
$var wire 32 r" b [31:0] $end
$var wire 1 ? sel $end
$var wire 32 s" c [31:0] $end
$var wire 32 t" a [31:0] $end
$upscope $end
$scope module pc_adderF $end
$var wire 32 u" b [31:0] $end
$var wire 32 v" c [31:0] $end
$var wire 32 w" a [31:0] $end
$upscope $end
$scope module program_counter $end
$var wire 32 x" PCNext [31:0] $end
$var wire 1 ! clk $end
$var wire 1 y" en $end
$var wire 1 # rst $end
$var reg 32 z" PC [31:0] $end
$upscope $end
$upscope $end
$scope module Hazard $end
$var wire 1 {" FlushE $end
$var wire 5 |" RdM [4:0] $end
$var wire 1 6 RegwriteM $end
$var wire 5 }" Rs1E [4:0] $end
$var wire 5 ~" Rs2E [4:0] $end
$var wire 1 . StallD $end
$var wire 1 - StallE $end
$var wire 1 , StallF $end
$var wire 1 # rst $end
$var wire 1 5 RegwriteW $end
$var wire 5 !# RdW [4:0] $end
$var wire 2 "# ForwardBE [1:0] $end
$var wire 2 ## ForwardAE [1:0] $end
$var wire 1 ) CacheWait $end
$upscope $end
$scope module Memory_cycle $end
$var wire 32 $# ALUResultM [31:0] $end
$var wire 1 ) CacheWait $end
$var wire 1 B MemwriteM $end
$var wire 5 %# RdM [4:0] $end
$var wire 1 6 RegwriteM $end
$var wire 2 &# ResultSrcM [1:0] $end
$var wire 32 '# WriteDataM [31:0] $end
$var wire 1 ! clk $end
$var wire 1 " clk_cc $end
$var wire 32 (# pc_plus4M [31:0] $end
$var wire 1 # rst $end
$var wire 32 )# stored_data [31:0] $end
$var wire 32 *# stored_address [31:0] $end
$var wire 32 +# pc_plus4W [31:0] $end
$var wire 1 ,# hit2 $end
$var wire 1 -# hit1 $end
$var wire 1 .# Wait $end
$var wire 2 /# ResultSrcW [1:0] $end
$var wire 1 5 RegwriteW $end
$var wire 32 0# ReadDataW [31:0] $end
$var wire 32 1# ReadDataM [31:0] $end
$var wire 5 2# RdW [4:0] $end
$var wire 32 3# ALUResultW [31:0] $end
$var reg 32 4# ALUResultM_W [31:0] $end
$var reg 5 5# RdM_W [4:0] $end
$var reg 32 6# ReadDataM_W [31:0] $end
$var reg 1 7# RegwriteM_W $end
$var reg 2 8# ResultSrcM_W [1:0] $end
$var reg 32 9# pc_plus4M_W [31:0] $end
$scope module Cache_Controller $end
$var wire 32 :# address [31:0] $end
$var wire 1 " clk_cc $end
$var wire 8 ;# data [7:0] $end
$var wire 1 B mode $end
$var parameter 32 <# byte_size $end
$var parameter 32 =# l1_block_bit_size $end
$var parameter 32 ># l1_blocks $end
$var parameter 32 ?# l1_latency $end
$var parameter 32 @# l2_block_bit_size $end
$var parameter 32 A# l2_latency $end
$var parameter 32 B# main_memory_block_size $end
$var parameter 32 C# main_memory_byte_size $end
$var parameter 32 D# main_memory_latency $end
$var parameter 32 E# no_of_address_bits $end
$var parameter 32 F# no_of_blkoffset_bits $end
$var parameter 32 G# no_of_bytes_main_memory_block $end
$var parameter 32 H# no_of_l1_index_bits $end
$var parameter 32 I# no_of_l1_tag_bits $end
$var parameter 32 J# no_of_l2_blocks $end
$var parameter 32 K# no_of_l2_index_bits $end
$var parameter 32 L# no_of_l2_tag_bits $end
$var parameter 32 M# no_of_l2_ways $end
$var parameter 32 N# no_of_l2_ways_bits $end
$var parameter 32 O# no_of_main_memory_blocks $end
$var reg 1 P# Ccount $end
$var reg 1 .# Wait $end
$var reg 1 Q# dummy_hit $end
$var reg 1 R# dummy_hit_w $end
$var reg 1 -# hit1 $end
$var reg 1 ,# hit2 $end
$var reg 1 S# is_L2_delay $end
$var reg 1 T# is_L2_delay_w $end
$var reg 25 U# l1_evict_tag [24:0] $end
$var reg 25 V# l1_evict_tag2 [24:0] $end
$var reg 25 W# l1_evict_tag3 [24:0] $end
$var reg 5 X# l1_index [4:0] $end
$var reg 25 Y# l1_tag [24:0] $end
$var reg 7 Z# l1_to_l2_index [6:0] $end
$var reg 7 [# l1_to_l2_index2 [6:0] $end
$var reg 7 \# l1_to_l2_index3 [6:0] $end
$var reg 1 ]# l1_to_l2_search $end
$var reg 1 ^# l1_to_l2_search2 $end
$var reg 1 _# l1_to_l2_search3 $end
$var reg 23 `# l1_to_l2_tag [22:0] $end
$var reg 23 a# l1_to_l2_tag2 [22:0] $end
$var reg 23 b# l1_to_l2_tag3 [22:0] $end
$var reg 2 c# l2_delay_counter [1:0] $end
$var reg 2 d# l2_delay_counter_w [1:0] $end
$var reg 23 e# l2_evict_tag [22:0] $end
$var reg 7 f# l2_index [6:0] $end
$var reg 23 g# l2_tag [22:0] $end
$var reg 2 h# lru_value [1:0] $end
$var reg 2 i# lru_value2 [1:0] $end
$var reg 2 j# lru_value_dummy [1:0] $end
$var reg 2 k# lru_value_dummy2 [1:0] $end
$var reg 30 l# main_memory_blk_id [29:0] $end
$var reg 4 m# main_memory_delay_count [3:0] $end
$var reg 4 n# main_memory_delay_counter_w [3:0] $end
$var reg 2 o# offset [1:0] $end
$var reg 8 p# output_data [7:0] $end
$var reg 32 q# stored_address [31:0] $end
$var reg 8 r# stored_data [7:0] $end
$var reg 1 s# stored_mode $end
$var integer 32 t# l1_l2_check [31:0] $end
$var integer 32 u# l1_l2_check2 [31:0] $end
$var integer 32 v# l1_l2_check2a [31:0] $end
$var integer 32 w# l1_l2_check2b [31:0] $end
$var integer 32 x# l1_l2_checka [31:0] $end
$var integer 32 y# l1_l2_checkb [31:0] $end
$var integer 32 z# l2_check [31:0] $end
$var integer 32 {# l2_check2 [31:0] $end
$var integer 32 |# l2_checka [31:0] $end
$var integer 32 }# l2_iterator [31:0] $end
$var integer 32 ~# l2_mm_check [31:0] $end
$var integer 32 !$ l2_mm_check2 [31:0] $end
$var integer 32 "$ l2_mm_iterator [31:0] $end
$scope begin initialization $end
$var integer 32 #$ i [31:0] $end
$upscope $end
$scope begin initialization_l1 $end
$var integer 32 $$ i [31:0] $end
$upscope $end
$scope begin initialization_main_memory $end
$var integer 32 %$ i [31:0] $end
$upscope $end
$upscope $end
$upscope $end
$scope module WriteBack_cycle $end
$var wire 32 &$ ALUResultW [31:0] $end
$var wire 5 '$ RdW [4:0] $end
$var wire 32 ($ ReadDataW [31:0] $end
$var wire 1 5 RegwriteW $end
$var wire 2 )$ ResultSrcW [1:0] $end
$var wire 1 ! clk $end
$var wire 32 *$ pc_plus4W [31:0] $end
$var wire 1 # rst $end
$var wire 32 +$ ResultW [31:0] $end
$scope module mux_write $end
$var wire 32 ,$ a [31:0] $end
$var wire 32 -$ b [31:0] $end
$var wire 32 .$ c [31:0] $end
$var wire 32 /$ d [31:0] $end
$var wire 2 0$ sel [1:0] $end
$var wire 32 1$ y [31:0] $end
$var reg 32 2$ mux_out [31:0] $end
$upscope $end
$upscope $end
$upscope $end
$upscope $end
$enddefinitions $end
$comment Show the parameter values. $end
$dumpall
b10000000000 O#
b10 N#
b100 M#
b10111 L#
b111 K#
b10000000 J#
b11001 I#
b101 H#
b100 G#
b10 F#
b100000 E#
b1010 D#
b1000000000000 C#
b100000 B#
b11 A#
b10000000 @#
b1 ?#
b100000 >#
b100000 =#
b1000 <#
$end
#0
$dumpvars
b0 2$
b0 1$
b0 0$
bz /$
b0 .$
b0 -$
b0 ,$
b0 +$
b0 *$
b0 )$
b0 ($
b0 '$
b0 &$
b10000000000 %$
b100000 $$
b10000000 #$
bx "$
bx !$
bx ~#
bx }#
bx |#
bx {#
bx z#
bx y#
bx x#
bx w#
bx v#
bx u#
bx t#
xs#
bx r#
bx q#
b0 p#
bx o#
b0 n#
b0 m#
bx l#
bx k#
bx j#
bx i#
bx h#
bx g#
bx f#
bx e#
b1 d#
b0 c#
bx b#
bx a#
bx `#
x_#
x^#
x]#
bx \#
bx [#
bx Z#
bx Y#
bx X#
bx W#
bx V#
bx U#
0T#
0S#
0R#
xQ#
1P#
b0 ;#
b0 :#
b0 9#
b0 8#
07#
b0 6#
b0 5#
b0 4#
b0 3#
b0 2#
b0 1#
b0 0#
b0 /#
1.#
0-#
0,#
b0 +#
bx *#
b0xxxxxxxx )#
b0 (#
b0 '#
b0 &#
b0 %#
b0 $#
b0 ##
b0 "#
b0 !#
b0 ~"
b0 }"
b0 |"
0{"
bx z"
0y"
bx x"
bx w"
bx v"
b100 u"
bx t"
bx s"
b0 r"
bx q"
b0 p"
b0 o"
b0 n"
b0 m"
b0 l"
b0 k"
b0 j"
bx i"
bx h"
b0 g"
bx f"
b0 e"
b0 d"
b0 c"
b0 b"
b0 a"
b0 `"
b0 _"
b0 ^"
b0 ]"
1\"
b0 ["
b0 Z"
b0 Y"
b0 X"
b0 W"
b0 V"
b0 U"
0T"
b0 S"
0R"
b0 Q"
b0 P"
b0 O"
b0 N"
b0 M"
b0 L"
b0 K"
b0 J"
b0 I"
b0 H"
b0 G"
b0 F"
b0 E"
b0 D"
b0 C"
bz B"
b0 A"
b0 @"
0?"
z>"
b0 ="
b0 <"
b0 ;"
b0 :"
b0 9"
b0 8"
b0 7"
b0 6"
b0 5"
b0 4"
b0 3"
b0 2"
b0 1"
b0 0"
b0 /"
b0 ."
b0 -"
b0 ,"
b0 +"
0*"
b0 )"
z("
b0 '"
b0 &"
b0 %"
z$"
b0 #"
b0 ""
b0 !"
b100000 ~
b0 }
b0 |
b0 {
b0 z
b0 y
b0 x
b0 w
b0 v
0u
b0 t
b0 s
b0 r
0q
b0 p
b0 o
b0 n
b0 m
0l
0k
0j
b0 i
b0 h
b0 g
0f
b0 e
b0 d
0c
0b
b0 a
b0 `
b0 _
b0 ^
b0 ]
b0 \
b0 [
b0 Z
b0 Y
0X
b0 W
b0 V
b0 U
b0 T
b0 S
b0 R
b0 Q
0P
b0 O
b0 N
b0 M
b0 L
b0 K
b0 J
b0 I
0H
b0 G
b0 F
b0 E
0D
0C
0B
b0 A
b0 @
0?
b0 >
b0 =
b0 <
b0 ;
b0 :
b0 9
b0 8
07
06
05
b0 4
b0 3
b0 2
b0 1
b0 0
b0 /
1.
1-
1,
b0 +
0*
1)
b0 (
b0 '
b0 &
b0 %
b0 $
0#
1"
1!
$end
#3000
0"
#6000
b10 d#
1"
#9000
0"
#10000
0!
#12000
b11 d#
1"
#15000
0"
#18000
1T#
b1 n#
b100 |#
b0 d#
1"
#20000
b100 h"
b100 s"
b100 x"
b100 f"
b100 t"
b100 v"
b0 i"
b0 q"
b0 w"
b0 z"
b100000 ~
1!
#21000
0"
#24000
b10 n#
b100 |#
1"
#27000
0"
#30000
b11 n#
b100 |#
1"
0!
#33000
0"
#36000
b100 n#
b100 |#
1"
#39000
0"
#40000
b100000 ~
1!
#42000
b101 n#
b100 |#
1"
#45000
0"
#48000
b110 n#
b100 |#
1"
#50000
0!
#51000
0"
#54000
b111 n#
b100 |#
1"
#57000
0"
#60000
b1000 n#
b100 |#
b100000 ~
1"
1!
#63000
0"
#66000
b1001 n#
b100 |#
1"
#69000
0"
#70000
0!
#72000
b1010 n#
b100 |#
1"
#75000
0"
#78000
1y"
0T#
0-
0.
0,
0)
0.#
b0 n#
b100 |#
1"
#80000
b100000 ~
1!
#81000
0"
#84000
0y"
1-
1.
1,
1)
1.#
b1 c#
b0 o#
b0 g#
b0 f#
b0 Y#
b0 X#
b0 l#
b0 )#
b0 r#
0s#
b0 *#
b0 q#
1"
#87000
0"
#90000
b10010011 k"
b10010011 p"
1#
b10 c#
1"
0!
#93000
0"
#96000
b11 c#
1"
#99000
0"
#100000
1!
#102000
1S#
b1 m#
b100 z#
0Q#
1-
1.
1,
1)
1.#
0,#
b0 c#
1"
#105000
0"
#108000
b10 m#
b100 z#
1-
1.
1,
1)
1.#
0,#
1"
#110000
0!
#111000
0"
#114000
b11 m#
b100 z#
1-
1.
1,
1)
1.#
0,#
1"
#117000
0"
#120000
b100 m#
b100 z#
1-
1.
1,
1)
1.#
0,#
1"
1!
#123000
0"
#126000
b101 m#
b100 z#
1-
1.
1,
1)
1.#
0,#
1"
#129000
0"
#130000
0!
#132000
b110 m#
b100 z#
1-
1.
1,
1)
1.#
0,#
1"
#135000
0"
#138000
b111 m#
b100 z#
1-
1.
1,
1)
1.#
0,#
1"
#140000
1!
#141000
0"
#144000
b1000 m#
b100 z#
1-
1.
1,
1)
1.#
0,#
1"
#147000
0"
#150000
b1001 m#
b100 z#
1-
1.
1,
1)
1.#
0,#
1"
0!
#153000
0"
#156000
b1010 m#
b100 z#
1-
1.
1,
1)
1.#
0,#
1"
#159000
0"
#160000
1!
#162000
1y"
b10 j#
b100 "$
b0 h#
b0 !$
b100 ~#
0S#
b0 m#
b100 z#
0-
0.
0,
0)
0.#
0,#
1"
#165000
0"
#168000
1-#
1"
#170000
0!
#171000
0"
#174000
1"
#177000
0"
#180000
1X
b10 ,"
b10 0"
b10 5"
1f
b10011 '"
b10011 2"
b1 [
b1010000100000011 k"
b1010000100000011 p"
b100 '
b100 M
b100 g"
b10010011 E
b10010011 d
b10010011 !"
b10010011 l"
b1000 h"
b1000 s"
b1000 x"
b100 o"
b10010011 m"
b1000 f"
b1000 t"
b1000 v"
b100 i"
b100 q"
b100 w"
b100 z"
1"
1!
#183000
0"
#186000
1"
#189000
0"
#190000
0!
#192000
1"
#195000
0"
#198000
1"
#200000
b0 ,"
b0 0"
b0 5"
b0 h
b0 -"
b0 1"
b1 W
b1 )"
b1 3"
1f
b1 x
b10 %"
b10 ."
b11 '"
b11 2"
b1 T
b10 [
b10000001010000110000011 k"
b10000001010000110000011 p"
b1 ;
b1 Z
b1 :"
b100 &
b100 L
b100 A"
1H
17
b100 A
b100 a
b100 j"
b1000 '
b1000 M
b1000 g"
b1010000100000011 E
b1010000100000011 d
b1010000100000011 !"
b1010000100000011 l"
b1100 h"
b1100 s"
b1100 x"
b1 p
b100 w
1j
1q
b100 n"
b1000 o"
b1010000100000011 m"
b1100 f"
b1100 t"
b1100 v"
b1000 i"
b1000 q"
b1000 w"
b1000 z"
1!
#201000
0"
#204000
1"
#207000
0"
#210000
1"
0!
#213000
0"
#216000
1"
#219000
0"
#220000
b100 O
b100 ""
b10 G
b10 M"
b10 ##
b100 y
b100 R
b11 [
b100000001010001000000011 k"
b100000001010001000000011 p"
b1000 A
b1000 a
b1000 j"
b1100 '
b1100 M
b1100 g"
b10000001010000110000011 E
b10000001010000110000011 d
b10000001010000110000011 !"
b10000001010000110000011 l"
b1 0
b1 S
b1 }"
b10 ;
b10 Z
b10 :"
b1000 &
b1000 L
b1000 A"
b100 >
b100 K"
b100 d"
b100 e"
b100 r"
b100 @
b100 `
b100 7"
b100 b"
b1 4
b1 V
b1 ;"
b100 %
b100 C"
b100 (#
b1 :
b1 I"
b1 |"
b1 %#
16
b10000 h"
b10000 s"
b10000 x"
b1000 n"
b1100 o"
b10000001010000110000011 m"
b1 s
b10 p
b1000 w
b100 m
b1 r
b100 W"
b1 S"
1T"
b10000 f"
b10000 t"
b10000 v"
b1100 i"
b1100 q"
b1100 w"
b1100 z"
1!
#222000
1"
#225000
0"
#228000
1"
#230000
0!
#231000
0"
#234000
1"
#237000
0"
#240000
b1 G
b1 M"
b1 ##
b1000 O
b1000 ""
0\"
b100 P"
b100 ^"
b100 ["
b100 E"
b100 ]"
b100 a"
b1000 y
b1000 R
b100 [
b110000001010001010000011 k"
b110000001010001010000011 p"
b100 $
b100 +#
b100 *$
b100 .$
b1 9
b1 Y
b1 }
b1 !#
b1 2#
b1 '$
15
b1000 %
b1000 C"
b1000 (#
b10 :
b10 I"
b10 |"
b10 %#
b1 3
b1 H"
b1 &#
b100 /
b100 Q
b100 ~"
b11 ;
b11 Z
b11 :"
b1100 &
b1100 L
b1100 A"
b100 (
b100 N
b100 @"
b100 `"
b100 c"
b1100 >
b1100 K"
b1100 d"
b1100 e"
b1100 r"
b1000 @
b1000 `
b1000 7"
b1000 b"
b1100 A
b1100 a
b1100 j"
b10000 '
b10000 M
b10000 g"
b100000001010001000000011 E
b100000001010001000000011 d
b100000001010001000000011 !"
b100000001010001000000011 l"
b10100 h"
b10100 s"
b10100 x"
b100 9#
b1 5#
17#
b1000 W"
b10 S"
b1 U"
b100 t
b11 p
b1100 w
b100 v
b1000 m
b1100 n"
b10000 o"
b100000001010001000000011 m"
b10100 f"
b10100 t"
b10100 v"
b10000 i"
b10000 q"
b10000 w"
b10000 z"
1"
1!
#243000
0"
#246000
1"
#249000
0"
#250000
0!
#252000
1"
#255000
0"
#258000
1"
#260000
b0 G
b0 M"
b0 ##
b1100 O
b1100 ""
b1000 P"
b1000 ^"
b1100 y
b1100 R
b101 [
b1000 ["
b1000 E"
b1000 ]"
b1000 a"
b1000000001010001100000011 k"
b1000000001010001100000011 p"
b10000 A
b10000 a
b10000 j"
b10100 '
b10100 M
b10100 g"
b110000001010001010000011 E
b110000001010001010000011 d
b110000001010001010000011 !"
b110000001010001010000011 l"
b1000 /
b1000 Q
b1000 ~"
b100 ;
b100 Z
b100 :"
b10000 &
b10000 L
b10000 A"
b1000 (
b1000 N
b1000 @"
b1000 `"
b1000 c"
b10100 >
b10100 K"
b10100 d"
b10100 e"
b10100 r"
b1100 @
b1100 `
b1100 7"
b1100 b"
b1100 %
b1100 C"
b1100 (#
b100 J
b100 O"
b100 $#
b100 :#
b11 :
b11 I"
b11 |"
b11 %#
b1000 $
b1000 +#
b1000 *$
b1000 .$
b10 9
b10 Y
b10 }
b10 !#
b10 2#
b10 '$
b1 2
b1 /#
b1 )$
b1 0$
b11000 h"
b11000 s"
b11000 x"
b10000 n"
b10100 o"
b110000001010001010000011 m"
b1000 t
b100 p
b10000 w
b1000 v
b1100 m
b1100 W"
b100 Q"
b11 S"
b1000 9#
b10 5#
b1 8#
b11000 f"
b11000 t"
b11000 v"
b10100 i"
b10100 q"
b10100 w"
b10100 z"
1!
#261000
0"
#264000
0y"
1-
1.
1,
1)
1.#
b1 c#
0-#
b1 f#
b1 X#
b1 l#
b100 *#
b100 q#
1"
#267000
0"
#270000
b10 c#
1"
0!
#273000
0"
#276000
b11 c#
1"
#279000
0"
#280000
1!
#282000
1S#
b1 m#
b100 z#
1-
1.
1,
1)
1.#
0,#
b0 c#
1"
#285000
0"
#288000
b10 m#
b100 z#
1-
1.
1,
1)
1.#
0,#
1"
#290000
0!
#291000
0"
#294000
b11 m#
b100 z#
1-
1.
1,
1)
1.#
0,#
1"
#297000
0"
#300000
b100 m#
b100 z#
1-
1.
1,
1)
1.#
0,#
1"
1!
#303000
0"
#306000
b101 m#
b100 z#
1-
1.
1,
1)
1.#
0,#
1"
#309000
0"
#310000
0!
#312000
b110 m#
b100 z#
1-
1.
1,
1)
1.#
0,#
1"
#315000
0"
#318000
b111 m#
b100 z#
1-
1.
1,
1)
1.#
0,#
1"
#320000
1!
#321000
0"
#324000
b1000 m#
b100 z#
1-
1.
1,
1)
1.#
0,#
1"
#327000
0"
#330000
b1001 m#
b100 z#
1-
1.
1,
1)
1.#
0,#
1"
0!
#333000
0"
#336000
b1010 m#
b100 z#
1-
1.
1,
1)
1.#
0,#
1"
#339000
0"
#340000
1!
#342000
1y"
b1 1#
b1 p#
b10 j#
b100 "$
b100 ~#
0S#
b0 m#
b100 z#
0-
0.
0,
0)
0.#
0,#
1"
#345000
0"
#348000
1-#
1"
#350000
0!
#351000
0"
#354000
1"
#357000
0"
